{
  "project_info": {
    "project_number": "679515356466",
    "firebase_url": "https://zamawianietaxi-f144d.firebaseio.com",
    "project_id": "zamawianietaxi-f144d",
    "storage_bucket": "zamawianietaxi-f144d.appspot.com"
  },
  "client": [
    {
      "client_info": {
        "mobilesdk_app_id": "1:679515356466:android:02a6d250f576c142",
        "android_client_info": {
          "package_name": "com.staszekalcatraz.zamawianietaxi"
        }
      },
      "oauth_client": [
        {
          "client_id": "679515356466-37abeeq2gnd0d27kcrm9auqlfnvu52hp.apps.googleusercontent.com",
          "client_type": 3
        }
      ],
      "api_key": [
        {
          "current_key": "AIzaSyBmHE6xRVjQlzw8h8yo8r6k4Rt1PoqxvJg"
        }
      ],
      "services": {
        "analytics_service": {
          "status": 1
        },
        "appinvite_service": {
          "status": 1,
          "other_platform_oauth_client": []
        },
        "ads_service": {
          "status": 2
        }
      }
    }
  ],
  "configuration_version": "1"
}